<?xml version="1.0" encoding="utf-8"?>
<!-- Generator: Adobe Illustrator 17.0.0, SVG Export Plug-In . SVG Version: 6.00 Build 0)  -->
<!DOCTYPE svg PUBLIC "-//W3C//DTD SVG 1.1//EN" "http://www.w3.org/Graphics/SVG/1.1/DTD/svg11.dtd">
<svg version="1.1" id="Capa_1" xmlns="http://www.w3.org/2000/svg" xmlns:xlink="http://www.w3.org/1999/xlink" x="0px" y="0px"
	 width="600px" height="600px" viewBox="0 0 600 600" enable-background="new 0 0 600 600" xml:space="preserve">
<g>
	<path d="M512.233,87.767c-117.019-117.019-307.434-117.031-424.465,0s-117.019,307.434,0,424.465s307.434,117.031,424.465,0
		C629.252,395.202,629.252,204.787,512.233,87.767z M418.358,418.358c-9.016,9.016-23.63,9.016-32.646,0L300,332.646l-89.788,89.788
		c-9.016,9.016-23.63,9.016-32.646,0c-9.016-9.016-9.016-23.63,0-32.646L267.354,300l-85.713-85.713
		c-9.016-9.016-9.016-23.642,0-32.646c9.016-9.016,23.63-9.016,32.646,0L300,267.354l81.626-81.626
		c9.016-9.016,23.63-9.016,32.646,0c9.016,9.016,9.016,23.63,0,32.646L332.646,300l85.713,85.713
		C427.374,394.728,427.374,409.343,418.358,418.358z"/>
</g>
</svg>
