<?xml version="1.0" encoding="utf-8"?>
<!-- Generator: Adobe Illustrator 22.1.0, SVG Export Plug-In . SVG Version: 6.00 Build 0)  -->
<svg version="1.1" id="Layer_1" xmlns="http://www.w3.org/2000/svg" xmlns:xlink="http://www.w3.org/1999/xlink" x="0px" y="0px"
	 viewBox="0 0 143 207" style="enable-background:new 0 0 143 207;" xml:space="preserve">
<style type="text/css">
	.st0{fill:#ECECEC;}
	.st1{fill:#F4F4F4;}
	.st2{fill:#FFB287;}
	.st3{fill:#BF3030;}
	.st4{fill:#D33939;}
	.st5{fill:#FFE14E;}
	.st6{fill:#FFFFFF;}
	.st7{fill:#F23D3D;}
	.st8{opacity:0.6;fill:#E5785C;}
	.st9{fill:#AA2929;}
	.st10{fill:#EAA93F;}
	.st11{fill:#C17840;}
	.st12{fill:#F6EEE3;}
	.st13{fill:#D94647;}
	.st14{fill:#F7BFC2;}
	.st15{fill:#D2324B;}
	.st16{fill:#AF1E3A;}
	.st17{fill:#8E3925;}
	.st18{fill:#E5785C;}
	.st19{fill:#422B27;}
	.st20{fill:#F2E7E1;}
	.st21{fill:#1DA2D6;}
	.st22{fill:#684059;}
	.st23{fill:#826B80;}
	.st24{fill:#4C2D42;}
	.st25{fill:#CDC8D6;}
</style>
<ellipse id="Ellipse_1_copy_8" class="st0" cx="71.5" cy="96.4" rx="71.5" ry="71.3"/>
<ellipse id="Ellipse_1_copy_7" class="st1" cx="106.1" cy="187.4" rx="19.6" ry="19.6"/>
<circle id="Ellipse_1_copy_6" class="st1" cx="68.8" cy="92.9" r="67.2"/>
<g>
	<path class="st2" d="M117.6,77.2c0.4,0.9,1.7,1.7,4.4,0.3c2.7-1.4-1.8-3.2-1.8-3.2L117.6,77.2z"/>
	<g>
		<path class="st2" d="M101.9,83.2c-1.4,0-2.3-0.4-3.1-1.1c-2.2-1.8-3.2-4.1-6.6-11.4c-2-4.3-4.7-10.1-8.9-18.8
			c-0.7-1.5-0.1-3.3,1.4-4.1c1.5-0.7,3.3-0.1,4.1,1.4c4.2,8.7,7,14.6,8.9,18.9c2.5,5.3,3.6,7.7,4.6,8.9c0.9-0.1,3.7-0.8,10.5-4.3
			c4.7-2.4,8.8-4.8,8.8-4.9c1.5-0.9,3.3-0.4,4.2,1.1c0.9,1.5,0.4,3.3-1.1,4.2c-0.2,0.1-5.1,3-10.4,5.6
			C108,82.1,104.3,83.2,101.9,83.2z"/>
		<path class="st2" d="M40.5,145c-1.9,0-3.9-0.4-6.4-0.9c-7.3-1.4-15.4-4.2-20.2-6.4c-2.1-1-3-3.4-2.1-5.5c1-2.1,3.4-3,5.5-2.1
			c4.3,2,11.6,4.5,18.2,5.8c4.1,0.8,5.1,0.9,6.1,0.4c1.7-0.9,4.4-3.9,8.8-8.8c1.5-1.7,4.2-1.9,5.9-0.3c1.7,1.5,1.9,4.2,0.3,5.9
			c-5.4,6.1-8.2,9.1-11.2,10.7C43.9,144.7,42.3,145,40.5,145z"/>
		<path class="st3" d="M59.9,102.1c-1.5,0-2.7,1.2-2.7,2.7v13.8c0,1.5,1.2,2.5,2.7,2.1l24.9-0.9c2.7,0,6.5-8.3,6.5-15.4
			c0,0-1.3-2.4-2.8-2.4H59.9z"/>
		<path class="st3" d="M53.3,121.5l0.4-0.4c5.2-5.3,3.6-5.2,3.6-18.9c0-4.7,15.8-5.9,20.5-5.6c4.7,0.3,9.3-5,8.9-0.4
			c-1.3,17.8-11,27.1-21.3,37l-0.4,0.4c-1.8,1.7-4.2,2.5-6.5,2.3c-2-0.1-4-1-5.5-2.6C49.8,130.1,49.9,124.7,53.3,121.5z"/>
		<path class="st4" d="M84.3,104.5c0,2-0.4,5.6-2.9,8.3c-2.5,2.6-8.2-4.1-8.2-4.1l2.1-4.1L84.3,104.5z"/>
		<path class="st4" d="M57.2,102.7v2.1c0,0.4,0,0.9,0,1.3c0,1.2,0-2.6,0.1-1.6c0.3,5.1,0.5,6.9,7,12c0.8,0.6,2,1.8,3.1,2.8
			c1,0.9,2.2,2.1,3.9,3.7l4.6-7.4c0,0,9.4-1.9,4.8-6.8c-0.8-0.8-1.5-1.6-2.3-2.2c-0.9-0.8-1.8-1.5-2.6-2v0c-2.6-1.7-5.1-2.3-7.6-1.8
			c-1.3,0.3-3,0.4-4.6,0.4C60.3,103.1,57.2,102.7,57.2,102.7z"/>
		<g>
			<g>
				<g>
					<path class="st5" d="M46.3,104.5h45V55.9c0-6.7-5.1-11.7-10-11.7H67.4c-1.6,0-3,0.1-4.1,0.4c-0.2,0-0.4,0.1-0.6,0.2
						c-3.9,1.2-4.9,4.3-4.9,10.3v26.5C57.8,96.1,46.3,104.5,46.3,104.5z"/>
					<g>
						<g>
							<path class="st2" d="M67.1,44.2h4h3.1h3.9c0.7,0,9.7,1.1,9.7,10.3c0,4.3-3.8,4.8-6.4,4.8c-3.9,0-7.9-2.4-8.5-6.1
								c-0.9-5.9-2.4-7.6-3.9-8.4C67.6,44,67.1,44.2,67.1,44.2z"/>
							<path class="st6" d="M81.4,60c-4.1,0-8.7-2.5-9.3-6.8c-0.9-5.6-2.3-7.1-3.5-7.8c-0.6-0.3-1-0.4-1.1-0.5h-5.1l4.5-1.6
								c0.1,0,0.4-0.1,0.7,0h10.5c2.2,0.1,10.5,2.2,10.5,11.1C88.6,58.1,86.2,60,81.4,60z M70.7,45c1.2,1.2,2.3,3.4,3,8
								c0.5,3.3,4.4,5.4,7.7,5.4c3.8,0,5.5-1.2,5.5-3.9c0-8.7-8.8-9.4-8.8-9.4L70.7,45z"/>
						</g>
						<path class="st2" d="M68,44.2L68,44.2C67.9,44.2,68,44.2,68,44.2z"/>
					</g>
				</g>
			</g>
		</g>
		<g>
			<path class="st4" d="M92.8,127.7c-2,3-5.2,5.8-6.4,5.9c-2.2,0.1-2.4,1.6-4.1-0.1c-0.3-0.3-2.7-2.7-3-3c-4.4-4.1-7.7-7.2-9.6-9
				c-0.9-0.8-1.4-1.4-1.8-1.7c-0.2-0.2-0.4-0.4-0.5-0.5c-3.3-3.3-3.4-8.4-0.3-11.8c2.7-3,7.9-4.1,12.1-0.4c0.2,0.2,0.3,0.3,0.3,0.3
				c0.3,0.3,0.6,0.6,0.8,0.9c0.6,0.6,1.6,1.5,3.2,3c1.7,1.6,4,3.7,7.2,6.7c0.3,0.3,2.7,2.9,3,3.2C95.4,122.7,94.5,125.3,92.8,127.7z
				"/>
			<path class="st7" d="M92.8,127.7l-4,0.5l-2.2-3.3c-2.7-2.2-11-9.9-12.5-11.5c-1.4-1.6,2.4-7.7,7.3-3.6c0.6,0.5,1.3,1,2.2,1.6
				c1.7,1.6,4,3.7,7.2,6.7c0.3,0.3,2.7,2.9,3,3.2C95.4,122.7,94.5,125.3,92.8,127.7z"/>
		</g>
		<g>
			<path class="st2" d="M58.6,55.8c0,0,0,2.5,0,5.3c0,3.9,1.6,6.2,5.5,6.2c7.9,0,6.5-11.2,5.2-16.3c-1.3-5.1-4.6-6.8-6-6.4
				c-2.8,0.7-4.3,2.2-5,4.8C57.9,50.9,58.6,53.5,58.6,55.8z"/>
			<path class="st6" d="M64,68.1c-4.2,0-6.3-2.4-6.3-7v-5.3c0-0.9-0.1-1.8-0.2-2.7c-0.2-1.5-0.3-2.9,0-3.9c0.8-3,2.5-4.7,5.6-5.4
				c0.7-0.2,1.7,0,2.7,0.5c2,1.1,3.5,3.5,4.3,6.4c0.6,2.5,2.4,10.8-0.9,15C68,67.3,66.2,68.1,64,68.1z M63.7,45.3
				c-0.1,0-0.1,0-0.2,0l0,0c-2.5,0.6-3.7,1.8-4.4,4.2c-0.2,0.8-0.1,2,0.1,3.4c0.1,0.9,0.2,1.9,0.2,2.9v5.3c0,3.7,1.4,5.3,4.6,5.3
				c1.7,0,2.9-0.6,3.8-1.7c2.2-2.9,1.8-8.9,0.6-13.6c-0.9-3.6-2.7-5-3.5-5.4C64.4,45.4,64,45.3,63.7,45.3z"/>
		</g>
		<path class="st8" d="M57.8,55V58c0,0.1,0,11.4,0,11.5c8.1,0,7.1-22.8,7.1-22.8l-1.7,0C59.3,47.8,57.8,49,57.8,55z"/>
		<path class="st9" d="M94.8,123.1c0.1,1.6-0.9,3.8-2.5,6c-0.3,0.4-0.7,0.8-1,1.2c0,0,0,0,0,0c-3.2,3.5-7,5.1-8.6,3.7
			c-1.6-1.4-0.3-5.3,2.8-8.8c0,0,0,0,0.1-0.1c0.4-0.4,0.8-0.8,1.2-1.2c2-1.8,4.2-3,5.7-3c0.3,0,0.6,0,0.9,0.1
			c0.3,0.1,0.6,0.2,0.8,0.4c0.2,0.2,0.4,0.4,0.5,0.7C94.7,122.4,94.8,122.7,94.8,123.1z"/>
		<path class="st2" d="M42.1,90.7c-1.3,0-2.6-0.9-2.9-2.2c-0.1-0.2-1.7-6.2-3-12.5c-2.4-12.2-1.4-15.6,1-17.2
			c2.8-1.9,9.3-5.2,14.2-7.7c3.2-1.6,5.8-2.9,7.1-3.5c0.9-0.5,1.7-0.8,2.2-1.1c0.3-0.1,0.5-0.2,0.7-0.3c2.5-1.1,3.8,0.7,4,1l1.7,2.5
			l-2.4,1.8c-0.2,0.2-0.5,0.3-0.8,0.4C62,52.6,46.2,60.2,41,63.5c-0.2,0.8-0.4,3.8,1.4,12.5c1.2,5.6,2.6,10.7,2.6,10.7
			c0.5,1.6-0.5,3.3-2.1,3.8C42.6,90.6,42.3,90.7,42.1,90.7z"/>
		<g>
			<path class="st2" d="M117,164.9c-0.5-2.1-1.9-9.2-3.2-15.5c-1.4-7.2-2.1-9.4-2.6-10.6c-0.9-2.5-5-6.1-16.6-16.7
				c-0.4-0.4-0.8-0.7-1.2-1.1c-0.3-0.1-0.6-0.1-0.9-0.1c-1.6,0.1-3.7,1.2-5.7,3c-0.4,0.4-0.8,0.8-1.2,1.2c0,0,0,0-0.1,0.1
				c0.3,0.2,0.6,0.5,1.2,1.1c1,0.9,1.9,1.7,2.8,2.5c0.6,0.5,1.2,1,1.7,1.5c8.4,7.5,10.9,9.6,11.4,10.4c0.5,1.4,2.2,5.3,3,10.3
				c1.1,6.7,2.7,13.6,3.3,15.9c0.5,1.9,2.2,3.2,4,3.2c0.3,0,0.7,0,1-0.1C116.2,169.4,117.5,167.2,117,164.9z"/>
		</g>
		<path class="st10" d="M46.3,104.5h28.2c-5.4,0-9.5-0.9-17.3-3c-0.8-0.2-1.6-0.4-2.5-0.7C48.1,99,45.8,101.2,46.3,104.5z"/>
		<path class="st11" d="M143,172.1"/>
		<g>
			<g>
				<path class="st12" d="M108.2,163.7c0,0,1.2,6.6,1.9,10.6c0.3,1.9,2,3.4,3.8,3.6c0.3,0,0.6,0,1,0c2.2-0.3,4.5-1.9,4.1-4.2
					c-0.8-4.3-1.9-8.4-2.9-12.6L108.2,163.7z"/>
			</g>
			<path class="st13" d="M108.9,176.3c0,0.1,0,0.2,0,0.2c0.2,1.7,0.6,3.4,1.1,5c0.2,0.6,0.3,1.1,0.5,1.6c0.6,1.5,1.1,2.5,1.6,2.3
				c0.5,0.6,25.4-8.9,26.4-9.3c1.1-0.4,1.6-1.7,1-3.5c0-0.1-0.1-0.3-0.1-0.4c-0.2-0.5-0.4-0.8-0.7-1.1c-1.3-1.2-3.3-0.7-4.9-0.2
				c-0.4,0.1-0.7,0.2-1,0.3c-0.8,0.2-1.5,0.3-2.2,0.3c-0.4,0-0.9-0.1-1.3-0.1l0,0c-0.5-0.1-1-0.2-1.5-0.4c-0.7-0.2-1.3-0.5-2.1-0.7
				c-0.3-0.1-0.5-0.2-0.8-0.3c-0.1,0-0.2-0.1-0.3-0.1c-0.4-0.1-0.8-0.3-1.1-0.4c-0.5-0.2-1-0.5-1.4-0.7l0,0
				c-0.1-0.1-0.2-0.1-0.3-0.2c-0.3-0.2-0.5-0.4-0.8-0.6c-1.1-0.9-1.8-1.7-3.2-1.8c-1.7-0.2-4.3,0.8-4.6,2.5c0,0.1,0,0.2,0,0.3
				c0,0.6,0.4,1.9,0.5,3c0.1,0.8,0,1.6-0.5,2.1c-1.7,1.4-2.7,0.4-3.3-0.9c0,0,0,0,0,0c-0.5-1.1-0.7-2.4-0.7-2.4
				C108.6,171.1,108.5,173.5,108.9,176.3z"/>
			<path class="st14" d="M138.1,170.7c-1.8-1.1-4.5,0.1-5.9,0.5c-2.3,0.7-2.7,1.2-3.1,2.4C129,173.9,138.3,170.9,138.1,170.7z"/>
			<path class="st14" d="M110.5,183.1c0.6,1.5,1.1,2.5,1.6,2.3c0.5,0.6,25.4-8.9,26.4-9.3c1.1-0.4,1.6-1.7,1-3.5
				c0-0.1-0.1-0.3-0.1-0.4C133.6,174.3,110.5,183.1,110.5,183.1z"/>
		</g>
		<path class="st6" d="M118.4,170.6c1.1-0.2,2.2-0.6,3.3-0.9c-1.1,0.7-2,1.6-1.6,2.3c0.4,0.8,1.6,0.1,2.1-0.2c0.6-0.3,1.5-0.6,2.2-1
			c-0.3,0.8-0.5,1.6-0.5,2.5c0,0.3,0.4,0.5,0.6,0.3c1.5-1.2,2.8-1.9,4.7-2.3c-0.5-0.1-1-0.2-1.5-0.4c-1.1,0.4-2,0.8-3,1.5
			c0.1-0.8,0.4-1.6,0.9-2.3c-0.3-0.1-0.5-0.2-0.8-0.3c-0.1,0-0.2-0.1-0.3-0.1c-0.6,0.3-1.4,0.5-1.8,0.8c-0.4,0.2-1.6,0.7-1.7,0.8
			c0.7-0.8,1.5-1.5,2.5-2c-0.5-0.2-1-0.5-1.4-0.7l0,0c-1,0.3-1.9,0.6-2.9,0.8c0.7-0.6,1.6-0.8,2.6-1l-0.8-0.6
			c-1.3,0.3-2.6,0.9-3.1,2.1C117.9,170.3,118.2,170.6,118.4,170.6z"/>
		<g>
			<g>
				<path class="st13" d="M18.9,128.9c-0.1,0-0.2-0.1-0.2-0.1c-1.4-0.7-3-1.4-4.5-1.9c-0.5-0.2-1-0.3-1.5-0.5
					c-1.5-0.4-2.6-0.5-2.7,0c-0.8,0.1-6.8,23.8-7.1,24.9c-0.3,1,0.4,2.2,2.2,2.8c0.1,0,0.3,0.1,0.4,0.1c0.5,0.1,0.9,0.1,1.2,0
					c1.6-0.3,2.4-2.2,2.9-3.7c0.1-0.4,0.2-0.7,0.3-1c0.3-0.8,0.6-1.4,1-1.9c0.3-0.3,0.5-0.6,0.8-0.9l0,0c0.3-0.3,0.7-0.6,1.1-0.9
					c0.5-0.4,1.1-0.8,1.7-1.2c0.2-0.2,0.4-0.3,0.7-0.5c0.1-0.1,0.2-0.1,0.2-0.2c0.3-0.2,0.6-0.4,0.9-0.6c0.5-0.3,0.9-0.5,1.3-0.6
					l0,0c0.1,0,0.2-0.1,0.3-0.1c0.3-0.1,0.6-0.2,0.9-0.3c1.3-0.3,2,0.4,2.9-0.6c1.1-1.2,1.8-3.8,0.6-5c-0.1-0.1-0.2-0.2-0.2-0.2
					c-0.5-0.4,1,0.5,0,0c-0.7-0.4,0.8-1.8,0.8-1.2c0.6,6.1-1.7-0.7-1.7-0.7c1.1,0.2-0.4-2.8-0.4-2.8
					C21.1,130.8,20.9,130.2,18.9,128.9z"/>
				<path class="st12" d="M26.8,133.7l-2.5,8c-1-0.3-1.7-0.5-2.3-0.7c-0.7-0.2-1.1-0.3-1.6-0.5c-0.6-0.2-1.3-0.5-2.7-1.2
					c-2-0.9,1-8.7,2.7-8c1,0.4,2,0.8,2.9,1.1c0.6,0.2,1.1,0.4,1.6,0.6C26,133.4,26.8,133.7,26.8,133.7z"/>
				<path class="st14" d="M12.7,126.4c-1.5-0.4-2.6-0.5-2.7,0c-0.8,0.1-6.8,23.8-7.1,24.9c-0.3,1,0.4,2.2,2.2,2.8
					c0.1,0,0.3,0.1,0.4,0.1C7.1,148.4,12.7,126.4,12.7,126.4z"/>
			</g>
		</g>
		<g>
			<path class="st15" d="M92.3,11.7v2.2c0,1.5,0,3,0,3c0,0.9-0.1,1.4-1.2,1.4c-0.9,0-0.6-3.7-1.8-3.7h-9.1c-4.6,0-15.8,1.1-15.5,5
				L64.6,18l-0.1-2.1l-0.1-1l0-0.8c-0.3-4,11.3-4.9,15.9-4.9h9.1c0.6,0,1.2,0,1.6,0.2C91.7,9.7,92.3,10.3,92.3,11.7z"/>
			<path class="st16" d="M91.6,16.8l-0.1,1.4l-0.3,4.1c0.3-4-10.9-5-15.5-5h-9.1c-1.2,0-0.9,3.7-1.8,3.7c-1,0-1.2-0.5-1.2-1.4
				c0,0,0-0.9,0-1.9v-3.3c0-0.5,0.1-1,0.2-1.3c0.3-0.7,0.9-1,1.6-1.1c0.3,0,0.7-0.1,1.1-0.1h9.1c0.6,0,1.3,0,2.1,0.1
				c2.1,0.1,4.8,0.3,7.2,0.8c1.9,0.4,3.6,0.9,4.8,1.6C91,15.1,91.6,15.9,91.6,16.8z"/>
			<g>
				<path class="st17" d="M64.3,21.9c0.5,7.4,2.4,9.4,5.3,9.4c2.4,0,4.3-3.3,4.3-4c-0.1-0.8-0.9-5.3-1.6-5.5
					C71.5,21.4,64.3,21.9,64.3,21.9z"/>
				<path class="st17" d="M71.1,29.7c-0.5-0.9-0.8,2.1-0.8,1.7c-0.1-6.3-5.5-1.6-5.9-8.6c-0.4-6-0.4-6-0.6-8.9
					c-0.3-5.7,2.5-11.4,15.9-11c6.8,0.2,8,1.9,9.6,5.4c2.9,6.5,0.6,14.8,0.6,14.8L71.1,29.7z"/>
				<path class="st2" d="M81,45.4c0,0-0.4,2.4-4.4,2.4c-4,0-5.7-3-5.7-3l2.5-11.5l10.4-0.6L81,45.4z"/>
				<path class="st18" d="M81.9,41.5c-0.3,1.3-8.6,0.2-10.2,2.8c-0.6,1-0.6,0-0.8,0.5c-0.4,1.8,3.1-14,3.1-14l10.3,0.1L81.9,41.5z"
					/>
				<path class="st18" d="M91,27c0,2.4-2.1,7.8-3.3,9.5c-0.5,0.7-1.1,2.4-2.8,2.9c-1.9,0.5-2.7,0.9-2.9,2c-0.2,0.9-1.7-1.3-2.4-1.3
					c-7.9,0-11.8-8.5-11.8-14.3l2.4-7.6c0-6.3,4.2-10.9,10.3-10.8c6.1,0,11,4.2,11,10.5L91,27z"/>
				<path class="st2" d="M91.7,17.7l-0.1,2.5L91.4,27c-0.2,6.6-1.7,12.8-9.8,12.7c-8-0.1-10-7.8-10-16.1l0.4-5.5c0-0.2,0-0.5,0-0.7
					c0.2-8.2,3.5-11.3,9.4-11.3C89.5,6.2,91.9,11.3,91.7,17.7z"/>
				<g>
					<path class="st18" d="M84.5,28.5c1.1,0,2.1-0.6,2.1-1.3c0-0.2-0.3-0.5-0.7-0.3c-0.2,0.1-0.8,0.2-1.4,0.2
						c-0.6,0-0.9-0.1-1.2-0.2c-0.7-0.2-1,0.1-1,0.3C82.2,27.8,83.4,28.5,84.5,28.5z"/>
				</g>
				<path class="st18" d="M71.7,23c0.2,2.4-1,4.4-2.7,4.5c-1.6,0.1-3.1-1.7-3.3-4c-0.2-2.4,0.8-4.2,2.4-4.5S71.6,20.7,71.7,23z"/>
				<path class="st19" d="M78.7,22.5c0,0.6,0.5,1,1,1c0.6,0,1-0.4,1-1c0-0.6-0.5-1-1-1C79.2,21.5,78.7,21.9,78.7,22.5z"/>
				<path class="st19" d="M87.7,22.6c0,0.6,0.5,1,1,1c0.6,0,1-0.4,1-1c0-0.6-0.5-1-1-1C88.2,21.6,87.7,22.1,87.7,22.6z"/>
				<path class="st17" d="M70.8,18.5"/>
				<path class="st17" d="M74.6,17.7"/>
				<path class="st17" d="M76.9,19.9c-0.4,0-0.7-0.3-0.7-0.7c0-0.4,0.3-0.7,0.7-0.7l4.6-0.1c0.4,0,0.7,0.3,0.7,0.7
					c0,0.4-0.3,0.7-0.7,0.7L76.9,19.9C76.9,19.9,76.9,19.9,76.9,19.9z"/>
				<path class="st17" d="M91.2,20.2C91.2,20.2,91.2,20.2,91.2,20.2l-4-0.3c-0.4,0-0.7-0.4-0.6-0.7c0-0.4,0.4-0.7,0.7-0.6l4,0.3
					c0.4,0,0.7,0.4,0.6,0.7C91.9,19.9,91.6,20.2,91.2,20.2z"/>
				<path class="st17" d="M69.3,17.2c0-3.6,1.6-6.8,4.1-8.9c-1.2-1.5-1.6-3.7-1.4-3.9c0.4-0.3,7.1-2.3,13.5-0.9
					c5,1.1,5.5,4.5,4.7,6.4c0,0,0,0,0,0.1c0,0,0,0,0,0c-0.7,1.6-2.2,2.7-3.6,2.7c-5.7,0-5.6-3.3-9.8-3c-1.7,0.1-4.2,1.2-4.2,5.3
					c0,4.5-0.7,9.2-0.8,9.2c-1.3,0.1-1.4-0.8-1.4-0.8c0-2.4-0.4-3.7-1.9-4.4L69.3,17.2z"/>
				<path class="st18" d="M91.7,12.2c0,1.6,0,5.4,0,5.4c0-2.1-1.3-2.4-2.9-2.4h-9.1c-1.7,0-4.4,0.2-7.1,0.6c-4.3,0.7-8.6,2-8.4,4.5
					l-0.4-5.6c-0.2-2.5,4.4-3.8,9-4.4c2.6-0.3,5.2-0.5,6.8-0.5h9.1C90.4,9.8,91.7,10.1,91.7,12.2z"/>
			</g>
			<path class="st18" d="M83.6,33.5C83.6,33.5,83.6,33.5,83.6,33.5c-1.6,0-2.7-0.2-3.3-0.6c-0.3-0.2-0.3-0.5-0.1-0.8
				c0.2-0.3,0.5-0.3,0.8-0.1c0.4,0.3,1.4,0.4,2.6,0.4c0,0,0,0,0,0c0.7,0,1.7,0,2.2-0.4c0.3-0.2,0.6-0.1,0.8,0.1
				c0.2,0.3,0.1,0.6-0.1,0.8C85.6,33.5,84.5,33.5,83.6,33.5z"/>
			<path class="st17" d="M90.7,10.1c1.1-1,3.8-4.9,0-9.4c0,0-5.2,5.4-6.2,5.4c-1,0,1.7,3.9,1.7,3.9H90.7z"/>
			<path class="st17" d="M88.7,10.2C89.6,9,91.5,3.5,86.9,0c0,0-4.1,5.2-11.6,3c-0.9-0.3,9,8.2,9,8.2L88.7,10.2z"/>
			<path class="st15" d="M91.7,11.4c0,1.6,0,5.4,0,5.4c0-2.1-1.3-2.4-2.9-2.4h-9.1c-1.7,0-4.4,0.2-7.1,0.6c-4.3,0.7-8.6,2-8.4,4.5
				l-0.4-5.6c-0.2-2.5,4.4-3.8,9-4.4c2.6-0.3,5.2-0.5,6.8-0.5h9.1C90.4,8.9,91.7,9.2,91.7,11.4z"/>
		</g>
		<path class="st18" d="M71.6,43.4c-6.7,0-8.8,1.1-9.9,1.6c-2.8,1.3-3.9,3.1-3.9,3.1s0.9-0.4,1.6-0.8c5.1-2.9,10.4-2.7,12-1.5
			c0,0,0.3-2.6,3.4-3c3.1-0.4,1.1-2.8,0.8-2.7c-0.3,0.1-1.3,0.6-1.3,0.6L71.6,43.4z"/>
		<path class="st13" d="M20.1,130.4c0.9,0.7,0.9,0.6,0.9,1.2c0,0.7-1.2,0.6-4.6-0.9c-3.4-1.5-3.3-2.6-3.3-2.6L20.1,130.4z"/>
		<path class="st12" d="M21.9,138.1c0.2,1.3,2.4,3.5-1.3,2.5c-3.7-1.1-6-2.4-5.2-4.9s1.9-4.7,3.9-3.8
			C21.2,132.6,21.9,138.1,21.9,138.1z"/>
		<path class="st4" d="M57.2,101.5v4.6h0l17.3-1.6c-3.7,0-6.8-0.4-10.9-1.4C61.7,102.6,59.6,102.1,57.2,101.5z"/>
		<path class="st9" d="M75.8,104.5L75.8,104.5c-2.6,0-7.7,0.6-11.9,1.7c-0.6,0.1-1.1,0.3-1.6,0.4c-2.6,0.8-4.6,1.8-5,2.9
			c-0.1-1.1-0.1-2.2-0.1-3.4h0v-4.6c1.8,0.5,3.3,0.9,4.8,1.2c0.6,0.1,1.1,0.3,1.6,0.4c0,0,0,0,0.1,0C67.8,103.9,72,104.5,75.8,104.5
			z"/>
		<polygon class="st3" points="83.4,109.5 77.4,106.1 83.2,110.9 85.5,110.9 		"/>
		<path class="st10" d="M71.3,89.7c-2.1,0,19.9,0,19.9,0V69.4L73,72.5C73,72.5,73.4,89.7,71.3,89.7z"/>
		<path class="st20" d="M91.2,72.2c0,0,0.5,13.2,2.8,13.2c-6.3,0-16.7,0-18.3,0c-2.2,0-2.8-13.2-2.8-13.2H91.2z"/>
		<rect x="73" y="69.4" class="st21" width="18.3" height="2.9"/>
		<g>
			<path class="st6" d="M84.3,126.6c-0.3,0.5-0.7,0.9-0.9,1.4c-3.9-3.6-10.9-9.8-13.9-12.4l-0.5-0.5c-0.4-0.4-0.9-0.7-1.3-1.1
				c-2.2-1.8-4.6-3.8-5.4-7.4c-0.2-0.9-0.3-1.8-0.3-2.9v-1.1c0.6,0.1,1.1,0.3,1.6,0.4c0,0,0,0,0.1,0v0.7c0,0.9,0.1,1.7,0.3,2.4
				c0.7,3.1,2.7,4.8,4.9,6.5c0.4,0.4,0.9,0.8,1.4,1.1l0.5,0.5C73.9,117.2,80.4,122.9,84.3,126.6z"/>
		</g>
	</g>
	<path class="st17" d="M64.3,21c0.1,1.8-1.6,5.6-3,5.1c0,0,2.8,2.4,4.5,1.4l-1-4.9L64.3,21z"/>
	<path class="st18" d="M93.4,121c-1.9,1.9-3.2,4.9-3.8,7.8c-0.9-0.8-1.8-1.6-2.8-2.5c-0.6-0.5-1-0.9-1.2-1.1c0,0,0,0,0.1-0.1
		c0.4-0.4,0.8-0.8,1.2-1.2c2-1.8,4.2-3,5.7-3C92.8,120.9,93.1,120.9,93.4,121z"/>
	<path class="st20" d="M63.6,103.8v-0.7c0,0,0,0-0.1,0c-0.5-0.1-1.1-0.3-1.6-0.4v1.1c0,1.1,0.1,2,0.3,2.9c0.5-0.2,1.1-0.3,1.6-0.4
		C63.7,105.5,63.6,104.7,63.6,103.8z"/>
	<path class="st3" d="M49.7,124.4c-0.2,0.2-0.4,0.4-0.5,0.7c-0.1,0.3-0.2,0.6-0.2,0.9c-0.1,1.6,0.9,3.9,2.6,6.1
		c0.3,0.4,0.7,0.8,1,1.2c0,0,0,0,0,0c3.2,3.5,7.1,5.1,8.6,3.7l4.6-4.1l-11.7-12.3L49.7,124.4z"/>
	<g>
		<g>
			<path class="st20" d="M116.5,58.3c0.3,0.5,0.2,1.1-0.2,1.3l-1.2,0.6c-0.4,0.2-0.9,0-1.2-0.5l-1.3-2.3c-0.3-0.5-0.2-1.1,0.2-1.3
				l1.2-0.6c0.4-0.2,0.9,0,1.2,0.5L116.5,58.3z"/>
			<path class="st21" d="M117.9,58.8c0.2,0.3,0.1,0.6-0.1,0.7l-3.4,1.9c-0.2,0.1-0.5,0-0.7-0.3l-1.1-1.9c-0.2-0.3-0.1-0.6,0.1-0.7
				l3.4-1.9c0.2-0.1,0.5,0,0.7,0.3L117.9,58.8z"/>
			<path class="st22" d="M123.9,67.5l0.5,0.8c0.2,0.4,0.6,0.7,0.8,0.8c0.2,0.1,0.3,0.1,0.3,0.1s0.6,0,1.1,1l2.9,5.2
				c0.7,1.4,1.3,2.4,1.3,2.4c0.4,0.8,0.3,1.7-0.3,2l-5.6,3.1c-0.6,0.3-1.5,0-1.9-0.8c0,0-0.5-1-1.3-2.4l-2.9-5.2
				c-0.5-1-0.3-1.5-0.3-1.5s0-0.1,0-0.3c0-0.3,0-0.7-0.3-1.1l-0.5-0.8c-0.1-0.2-0.2-0.4-0.3-0.5c-0.4-0.5-0.8-0.5-0.8-0.5
				s-0.5-0.1-0.9-0.7c-0.1-0.1-0.1-0.2-0.2-0.3c-0.4-0.8-1-1.8-1-1.8c0-0.1-0.1-0.1-0.1-0.2c-0.4-1.2-0.6-5.2-0.1-5.5l3.2-1.8
				c0.6-0.3,3.8,2,4.6,3c0.1,0.1,0.1,0.1,0.1,0.2c0,0,0.5,1,1,1.8c0.1,0.1,0.1,0.2,0.2,0.3c0.2,0.6,0.1,1.1,0.1,1.1s-0.2,0.3,0,0.9
				C123.7,67.1,123.7,67.3,123.9,67.5z"/>
		</g>
		<path class="st23" d="M122.2,62.6l-6.1,3.4c-0.6-1.2-0.9-3.3-0.7-4.5l3-1.7C119.6,60.4,121.6,61.9,122.2,62.6z"/>
		<path class="st23" d="M126.5,70.3l-6.6,3.7c-0.5-1-0.3-1.5-0.3-1.5s0-0.1,0-0.3l5.5-3c0.2,0.1,0.3,0.1,0.3,0.1
			S126,69.3,126.5,70.3z"/>
		<path class="st24" d="M123.5,64.9c0.2,0.6,0.1,1.1,0.1,1.1s-0.2,0.3,0,0.9l-6.2,3.4c-0.4-0.5-0.8-0.5-0.8-0.5s-0.5-0.1-0.9-0.7
			L123.5,64.9z"/>
	</g>
	<path class="st24" d="M120.9,67.4c0.4,0.5,0.9,1.4,0.3,2.3c-0.6,1-2.6,2.5-2.6,2.5l-0.8-1.1l0.7-2L120.9,67.4z"/>
	<path class="st2" d="M117.9,67.6c-0.1,0-0.2,0.1-0.4,0.2c-0.4,0.3-0.7,0.6-1,0.9c-1.2,0.9-1.7,2.2-1.2,3.8c0.1,0.3,0.7,0.2,0.5-0.1
		c-0.1-0.3-0.2-0.6-0.2-0.9c0.1,0.1,0.2,0.2,0.3,0.2c0,0,0,0,0,0.1c-0.1,0.5,0.3,0.8,0.8,0.8c-0.1,0.4-0.4,0.8-0.7,1.1
		c-0.6,0.6,0,1.4,0.6,1.4c0,0,0,0,0,0c-0.1,0.1,0,0.2,0,0.3c0,0,0,0-0.1,0.1c-0.3,0.2,0.1,0.6,0.4,0.4c0.9-0.9,1.3-2.1,1.5-3.3
		c0,0,0-0.1,0-0.1c0.1-0.5,0.1-1.4,0.2-2.1c0.5-0.3,1-0.7,1.1-1.3C120.3,67.6,119.1,66.8,117.9,67.6z"/>
	<path class="st2" d="M116.1,69.4c0.1-0.5-0.1-0.2,0.4-0.7c0.5-0.5,2.4-2.2,3.2-2.3c0.8-0.1,1.4,0.3,1.2,1.5
		c-0.2,1.2-0.7,1.7-2.1,2.4c-1.4,0.7-1.2-0.5-1.2-0.5L116.1,69.4z"/>
	<path class="st24" d="M125,65.7c-1.4,0.3-3.2,0.4-3.2,1.7c-0.1,1.3,0.6,1.8,2.4,4.2c1.8,2.4,2.9,3.5,4.6,2.9l-3.5-6.3L125,65.7z"/>
	<g>
		<path class="st2" d="M124,70.4c1.7,2.3,3.9,3.7,4.8,3.2s0.6-2.9-0.7-5.4c-1.3-2.5-3.4-3.9-4.8-3.2C122,65.7,122.3,68.1,124,70.4z"
			/>
	</g>
	<path class="st16" d="M72.6,14.9c-4.3,0.7-8.6,2-8.4,4.5l-0.4-5.6c-0.2-2.5,4.4-3.8,9-4.4c-0.2,0.3-0.2,0.8-0.3,1.6
		C72.3,12.3,72.6,12.5,72.6,14.9z"/>
	<path class="st10" d="M57.2,103.6v1.2c-4.1,0-10.2,3.6-10.9-0.3c-0.2-1.4,3-2.7,4.4-2.4c0,0,4.3,0.7,4.7,0.9
		C55.4,103,56.3,103.3,57.2,103.6z"/>
	<g>
		<g>
			<path class="st6" d="M92.3,12.5v1.4c-0.1-0.3-0.3-0.6-0.6-0.7c-0.4-0.3-1-0.3-1.8-0.3H78.8c-0.7,0-3.2,0-6.3,0.4
				c0-0.3,0-0.6-0.1-0.8c2.2-0.3,4.2-0.4,5.4-0.4c0.4,0,0.8,0,1,0h11.1c0.7,0,1.3,0,1.8,0.2C91.9,12.3,92.1,12.4,92.3,12.5z"/>
			<path class="st25" d="M72.5,13.3c-0.2,0-0.5,0.1-0.7,0.1c-3.7,0.6-6.2,1.4-7.4,2.5c-0.2,0.2-0.4,0.4-0.5,0.6
				c-0.2,0.3-0.3,0.9-0.3,1.2v-1.9c0-0.2,0.2-0.4,0.2-0.5c0.2-0.1,0.3-0.3,0.5-0.4c1.7-1.2,4.7-1.9,7.3-2.3c0.3,0,0.5-0.1,0.8-0.1
				C72.5,12.7,72.5,12.9,72.5,13.3z"/>
		</g>
	</g>
</g>
</svg>
