<?xml version="1.0" encoding="utf-8"?>
<!-- Generator: Adobe Illustrator 22.1.0, SVG Export Plug-In . SVG Version: 6.00 Build 0)  -->
<svg version="1.1" id="Layer_1" xmlns="http://www.w3.org/2000/svg" xmlns:xlink="http://www.w3.org/1999/xlink" x="0px" y="0px"
	 viewBox="0 0 343 488.6" style="enable-background:new 0 0 343 488.6;" xml:space="preserve">
<style type="text/css">
	.st0{fill:#ECECEC;}
	.st1{fill:#F4F4F4;}
	.st2{fill:#4F683F;}
	.st3{fill:#9CCF7E;}
	.st4{fill:#769B5D;}
	.st5{fill:#E3E3E3;}
	.st6{fill:#55A5D4;}
	.st7{fill:#CCCCCC;}
	.st8{fill:#ACABAB;}
	.st9{fill:#417DA1;}
	.st10{fill:#9C9C9D;}
	.st11{fill:#818181;}
	.st12{fill:#3A3B3A;}
	.st13{fill:#616262;}
</style>
<circle class="st0" cx="171.2" cy="234.2" r="171.2"/>
<circle class="st1" cx="165.9" cy="226.7" r="165.5"/>
<circle class="st1" cx="297.4" cy="425.7" r="37.9"/>
<circle class="st1" cx="234.6" cy="469.3" r="19"/>
<g>
	<g>
		<rect x="12.6" y="288.2" class="st2" width="4.5" height="9.7"/>
		<g>
			<rect x="14.8" y="288.2" class="st3" width="2.2" height="9.7"/>
			<rect x="17.1" y="288.2" class="st4" width="2.2" height="9.7"/>
		</g>
	</g>
	<g>
		<rect x="26.1" y="288.2" class="st2" width="4.5" height="9.7"/>
		<g>
			<rect x="28.3" y="288.2" class="st3" width="2.2" height="9.7"/>
			<rect x="30.6" y="288.2" class="st4" width="2.2" height="9.7"/>
		</g>
	</g>
	<g>
		<rect x="53" y="288.2" class="st2" width="4.5" height="9.7"/>
		<g>
			<rect x="55.3" y="288.2" class="st3" width="2.2" height="9.7"/>
			<rect x="57.5" y="288.2" class="st4" width="2.2" height="9.7"/>
		</g>
	</g>
	<g>
		<rect x="66.5" y="288.2" class="st2" width="4.5" height="9.7"/>
		<g>
			<rect x="68.7" y="288.2" class="st3" width="2.2" height="9.7"/>
			<rect x="71" y="288.2" class="st4" width="2.2" height="9.7"/>
		</g>
	</g>
	<g>
		<rect x="89.3" y="122.7" class="st5" width="52" height="180.2"/>
		<rect x="93.1" y="132.8" class="st6" width="3.4" height="159.9"/>
		<rect x="99.9" y="132.8" class="st6" width="3.4" height="159.9"/>
		<rect x="106.8" y="132.8" class="st6" width="3.4" height="159.9"/>
		<rect x="113.6" y="132.8" class="st6" width="3.4" height="159.9"/>
		<rect x="120.4" y="132.8" class="st6" width="3.4" height="159.9"/>
		<rect x="127.2" y="132.8" class="st6" width="3.4" height="159.9"/>
		<rect x="134" y="132.8" class="st6" width="3.4" height="159.9"/>
		<rect x="89.3" y="191.3" class="st5" width="52" height="5.2"/>
	</g>
	<g>
		<rect x="151.8" y="20.4" class="st5" width="31.1" height="33.4"/>
		<rect x="155.6" y="24.8" class="st6" width="3.4" height="24.5"/>
		<rect x="162.4" y="24.8" class="st6" width="3.4" height="24.5"/>
		<rect x="169.2" y="24.8" class="st6" width="3.4" height="24.5"/>
		<rect x="176.1" y="24.8" class="st6" width="3.4" height="24.5"/>
	</g>
	<g>
		<rect x="193.3" y="122.7" class="st5" width="52" height="180.2"/>
		<rect x="197.2" y="132.8" class="st6" width="3.4" height="159.9"/>
		<rect x="204" y="132.8" class="st6" width="3.4" height="159.9"/>
		<rect x="210.8" y="132.8" class="st6" width="3.4" height="159.9"/>
		<rect x="217.6" y="132.8" class="st6" width="3.4" height="159.9"/>
		<rect x="224.4" y="132.8" class="st6" width="3.4" height="159.9"/>
		<rect x="231.2" y="132.8" class="st6" width="3.4" height="159.9"/>
		<rect x="238" y="132.8" class="st6" width="3.4" height="159.9"/>
		<rect x="193.3" y="191.3" class="st5" width="52" height="5.2"/>
	</g>
	<g>
		<polygon class="st7" points="145.1,63.9 148.5,63.9 148.5,129.9 152,133.3 152,63.9 155.4,63.9 155.4,136.7 158.8,140.1 
			158.8,63.9 162.2,63.9 162.2,143.5 165.6,146.9 165.6,63.9 169,63.9 169,150.3 172.4,153.8 172.4,63.9 175.8,63.9 175.8,157.2 
			179.2,160.6 179.2,63.9 182.6,63.9 182.6,164 186,167.4 186,63.9 189.4,63.9 189.4,170.8 193.3,174.7 193.3,53.7 141.3,53.7 
			141.3,122.7 145.1,126.5 		"/>
		<polygon class="st8" points="189.4,170.8 189.4,292.8 186,292.8 186,167.4 182.6,164 182.6,292.8 179.2,292.8 179.2,160.6 
			175.8,157.2 175.8,292.8 172.4,292.8 172.4,153.8 169,150.3 169,292.8 165.6,292.8 165.6,146.9 162.2,143.5 162.2,292.8 
			158.8,292.8 158.8,140.1 155.4,136.7 155.4,292.8 152,292.8 152,133.3 148.5,129.9 148.5,292.8 145.1,292.8 145.1,126.5 
			141.3,122.7 141.3,302.9 193.3,302.9 193.3,174.7 		"/>
		<polygon class="st9" points="145.1,292.8 148.5,292.8 148.5,129.9 145.1,126.5 		"/>
		<polygon class="st6" points="145.1,63.9 145.1,126.5 148.5,129.9 148.5,63.9 		"/>
		<polygon class="st9" points="152,292.8 155.4,292.8 155.4,136.7 152,133.3 		"/>
		<polygon class="st6" points="152,63.9 152,133.3 155.4,136.7 155.4,63.9 		"/>
		<polygon class="st9" points="158.8,292.8 162.2,292.8 162.2,143.5 158.8,140.1 		"/>
		<polygon class="st6" points="158.8,63.9 158.8,140.1 162.2,143.5 162.2,63.9 		"/>
		<polygon class="st9" points="165.6,292.8 169,292.8 169,150.3 165.6,146.9 		"/>
		<polygon class="st6" points="165.6,63.9 165.6,146.9 169,150.3 169,63.9 		"/>
		<polygon class="st6" points="172.4,63.9 172.4,153.8 175.8,157.2 175.8,63.9 		"/>
		<polygon class="st9" points="172.4,292.8 175.8,292.8 175.8,157.2 172.4,153.8 		"/>
		<polygon class="st9" points="179.2,292.8 182.6,292.8 182.6,164 179.2,160.6 		"/>
		<polygon class="st6" points="179.2,63.9 179.2,160.6 182.6,164 182.6,63.9 		"/>
		<polygon class="st9" points="186,292.8 189.4,292.8 189.4,170.8 186,167.4 		"/>
		<polygon class="st6" points="186,63.9 186,167.4 189.4,170.8 189.4,63.9 		"/>
	</g>
	<g>
		<rect x="252.6" y="252.5" class="st8" width="3.4" height="21.1"/>
		<polygon class="st8" points="269.4,247.3 266.2,244.1 266.2,247.3 		"/>
		<polygon class="st7" points="283.2,261.2 283.2,252.5 279.8,252.5 279.8,257.8 		"/>
		<rect x="259.4" y="252.5" class="st8" width="3.4" height="21.1"/>
		<rect x="266.2" y="252.5" class="st8" width="3.4" height="21.1"/>
		<polygon class="st8" points="262.8,247.3 262.8,240.7 259.4,237.3 259.4,247.3 		"/>
		<polygon class="st8" points="286.6,273.7 290.1,273.7 290.1,268 286.6,264.6 		"/>
		<polygon class="st7" points="276.4,252.5 274.6,252.5 276.4,254.4 		"/>
		<polygon class="st7" points="286.6,252.5 286.6,264.6 290.1,268 290.1,252.5 		"/>
		<polygon class="st8" points="274.6,252.5 273,252.5 273,273.7 276.4,273.7 276.4,254.4 		"/>
		<polygon class="st8" points="279.8,257.8 279.8,273.7 283.2,273.7 283.2,261.2 		"/>
		<rect x="245.4" y="252.5" class="st8" width="3.8" height="21.1"/>
		<polygon class="st8" points="293.5,273.7 295.7,273.7 293.5,271.4 		"/>
		<polygon class="st7" points="293.5,271.4 295.7,273.7 297.4,273.7 297.4,252.5 293.5,252.5 		"/>
		<polygon class="st7" points="256,233.4 259.4,233.4 259.4,237.3 262.8,240.7 262.8,233.4 266.2,233.4 266.2,244.1 269.4,247.3 
			269.6,247.3 269.6,233.4 273,233.4 273,247.3 276.4,247.3 276.4,233.4 279.8,233.4 279.8,247.3 283.2,247.3 283.2,233.4 
			286.6,233.4 286.6,247.3 290.1,247.3 290.1,233.4 293.5,233.4 293.5,247.3 297.4,247.3 297.4,223.3 245.4,223.3 256,233.9 		"/>
		<polygon class="st8" points="293.5,292.8 290.1,292.8 290.1,278.9 286.6,278.9 286.6,292.8 283.2,292.8 283.2,278.9 279.8,278.9 
			279.8,292.8 276.4,292.8 276.4,278.9 273,278.9 273,292.8 269.6,292.8 269.6,278.9 266.2,278.9 266.2,292.8 262.8,292.8 
			262.8,278.9 259.4,278.9 259.4,292.8 256,292.8 256,278.9 252.6,278.9 252.6,292.8 249.2,292.8 249.2,278.9 245.4,278.9 
			245.4,302.9 297.4,302.9 297.4,278.9 293.5,278.9 		"/>
		<polygon class="st8" points="249.2,233.4 252.6,233.4 252.6,247.3 256,247.3 256,233.9 245.4,223.3 245.4,247.3 249.2,247.3 		"/>
		<rect x="249.2" y="278.9" class="st9" width="3.4" height="13.9"/>
		<rect x="249.2" y="252.5" class="st9" width="3.4" height="21.1"/>
		<rect x="249.2" y="233.4" class="st9" width="3.4" height="13.9"/>
		<polygon class="st6" points="259.4,233.4 256,233.4 256,233.9 259.4,237.3 		"/>
		<polygon class="st9" points="259.4,237.3 256,233.9 256,247.3 259.4,247.3 		"/>
		<rect x="256" y="278.9" class="st9" width="3.4" height="13.9"/>
		<rect x="256" y="252.5" class="st9" width="3.4" height="21.1"/>
		<polygon class="st6" points="266.2,233.4 262.8,233.4 262.8,240.7 266.2,244.1 		"/>
		<rect x="262.8" y="252.5" class="st9" width="3.4" height="21.1"/>
		<polygon class="st9" points="266.2,247.3 266.2,244.1 262.8,240.7 262.8,247.3 		"/>
		<rect x="262.8" y="278.9" class="st9" width="3.4" height="13.9"/>
		<rect x="269.6" y="278.9" class="st9" width="3.4" height="13.9"/>
		<rect x="269.6" y="252.5" class="st9" width="3.4" height="21.1"/>
		<rect x="269.6" y="233.4" class="st6" width="3.4" height="13.9"/>
		<rect x="276.4" y="278.9" class="st9" width="3.4" height="13.9"/>
		<polygon class="st9" points="276.4,254.4 276.4,273.7 279.8,273.7 279.8,257.8 		"/>
		<rect x="276.4" y="233.4" class="st6" width="3.4" height="13.9"/>
		<polygon class="st6" points="279.8,257.8 279.8,252.5 276.4,252.5 276.4,254.4 		"/>
		<polygon class="st9" points="283.2,261.2 283.2,273.7 286.6,273.7 286.6,264.6 		"/>
		<rect x="283.2" y="278.9" class="st9" width="3.4" height="13.9"/>
		<rect x="283.2" y="233.4" class="st6" width="3.4" height="13.9"/>
		<polygon class="st6" points="286.6,264.6 286.6,252.5 283.2,252.5 283.2,261.2 		"/>
		<rect x="290.1" y="233.4" class="st6" width="3.4" height="13.9"/>
		<polygon class="st6" points="290.1,268 293.5,271.4 293.5,252.5 290.1,252.5 		"/>
		<rect x="290.1" y="278.9" class="st9" width="3.4" height="13.9"/>
		<polygon class="st9" points="290.1,268 290.1,273.7 293.5,273.7 293.5,271.4 		"/>
		<polygon class="st5" points="297.4,275.3 297.4,273.7 295.7,273.7 		"/>
		<polygon class="st7" points="295.7,273.7 293.5,273.7 290.1,273.7 286.6,273.7 283.2,273.7 279.8,273.7 276.4,273.7 273,273.7 
			269.6,273.7 266.2,273.7 262.8,273.7 259.4,273.7 256,273.7 252.6,273.7 249.2,273.7 245.4,273.7 245.4,278.9 249.2,278.9 
			252.6,278.9 256,278.9 259.4,278.9 262.8,278.9 266.2,278.9 269.6,278.9 273,278.9 276.4,278.9 279.8,278.9 283.2,278.9 
			286.6,278.9 290.1,278.9 293.5,278.9 297.4,278.9 297.4,275.3 		"/>
		<polygon class="st7" points="273,251 269.6,247.6 269.4,247.3 266.2,247.3 262.8,247.3 259.4,247.3 256,247.3 252.6,247.3 
			249.2,247.3 245.4,247.3 245.4,252.5 249.2,252.5 252.6,252.5 256,252.5 259.4,252.5 262.8,252.5 266.2,252.5 269.6,252.5 
			273,252.5 274.6,252.5 		"/>
		<polygon class="st5" points="293.5,247.3 290.1,247.3 286.6,247.3 283.2,247.3 279.8,247.3 276.4,247.3 273,247.3 269.6,247.3 
			269.4,247.3 269.6,247.6 273,251 274.6,252.5 276.4,252.5 279.8,252.5 283.2,252.5 286.6,252.5 290.1,252.5 293.5,252.5 
			297.4,252.5 297.4,247.3 		"/>
	</g>
	<rect x="209.1" y="111.6" class="st7" width="20.4" height="11.1"/>
	<rect x="261.1" y="212.2" class="st5" width="20.4" height="11.1"/>
	<g>
		<polygon class="st10" points="271.4,194.8 271.2,194.8 269.9,212.2 272.7,212.2 		"/>
	</g>
	<g>
		<polygon class="st10" points="167.5,0 167.2,0 165.9,17.4 168.7,17.4 		"/>
		<g>
			<rect x="163.8" y="17.4" class="st5" width="3.6" height="2.9"/>
			<rect x="167.3" y="17.4" class="st8" width="3.6" height="2.9"/>
		</g>
	</g>
	<rect x="5.1" y="302.9" class="st9" width="306.8" height="10.9"/>
	<rect x="13.4" y="313.8" class="st8" width="290.2" height="21.9"/>
	<rect x="5.1" y="297.9" class="st5" width="84.2" height="5"/>
	<rect x="8.1" y="293.2" class="st3" width="4.5" height="4.6"/>
	<rect x="14.8" y="293.2" class="st3" width="4.5" height="4.6"/>
	<rect x="21.6" y="293.2" class="st3" width="4.5" height="4.6"/>
	<rect x="28.3" y="293.2" class="st3" width="4.5" height="4.6"/>
	<rect x="35.1" y="293.2" class="st3" width="4.5" height="4.6"/>
	<rect x="41.8" y="293.2" class="st3" width="4.5" height="4.6"/>
	<rect x="48.5" y="293.2" class="st3" width="4.5" height="4.6"/>
	<rect x="55.3" y="293.2" class="st3" width="4.5" height="4.6"/>
	<rect x="62" y="293.2" class="st3" width="4.5" height="4.6"/>
	<rect x="68.7" y="293.2" class="st3" width="4.5" height="4.6"/>
	<rect x="75.5" y="293.2" class="st3" width="4.5" height="4.6"/>
	<rect x="82.2" y="293.2" class="st3" width="4.5" height="4.6"/>
	<g>
		<polygon class="st11" points="303.6,313.8 13.4,313.8 19.7,320.1 303.6,320.1 		"/>
	</g>
	<g>
		<g>
			<rect x="66.7" y="313.8" class="st12" width="22.6" height="21.9"/>
		</g>
		<rect x="66.7" y="313.8" class="st13" width="22.6" height="1.2"/>
		<rect x="66.7" y="316.1" class="st13" width="22.6" height="1.1"/>
		<rect x="66.7" y="318.4" class="st13" width="22.6" height="1.2"/>
		<rect x="66.7" y="320.7" class="st13" width="22.6" height="1.1"/>
		<rect x="66.7" y="323" class="st13" width="22.6" height="1.2"/>
		<rect x="66.7" y="325.3" class="st13" width="22.6" height="1.1"/>
		<rect x="66.7" y="327.6" class="st13" width="22.6" height="1.1"/>
		<rect x="66.7" y="329.9" class="st13" width="22.6" height="1.1"/>
		<rect x="66.7" y="332.2" class="st13" width="22.6" height="1.2"/>
		<rect x="66.7" y="334.5" class="st13" width="22.6" height="1.1"/>
	</g>
</g>
</svg>
