<?xml version="1.0" encoding="utf-8"?>
<!-- Generator: Adobe Illustrator 22.1.0, SVG Export Plug-In . SVG Version: 6.00 Build 0)  -->
<svg version="1.1" id="color" xmlns="http://www.w3.org/2000/svg" xmlns:xlink="http://www.w3.org/1999/xlink" x="0px" y="0px"
	 viewBox="0 0 223 218" style="enable-background:new 0 0 223 218;" xml:space="preserve">
<style type="text/css">
	.st0{fill:#45A700;}
</style>
<g>
	<path class="st0" d="M185.1,92.4l1.2-1.4l-1.4-1.3c-1.5-1.2-13.5-12.6-20.1-18.9l-1.1-1.4l-8,8.5l15-26.6l-2.2-0.4
		c-12.2-1.3-39.4-14.3-39.7-14.5l-1.7-0.7l-0.3,1.6c-0.8,5.4-5.2,21.2-6.2,24.7c-4.9-0.1-21.8-1.4-22-1.4l-1.3-0.1l0.1,1.4
		c0.2,1.3,0,4.3-0.2,8.3c-2.7-7-7.2-16.9-7.4-17.5l-0.3-0.7l-1,0.1C72.1,54.1,54.7,64.5,54,65l-1.6,1.2l1,1.2
		c1.6,1.6,4.1,5.6,5.3,7.2c-8.6,6.9-19.9,11.9-20,11.9l-1.8,1.2l1.3,1.8c2.6,2.2,7.8,8.4,9.7,10.8c-7.5,6.2-10.4,17.6-10.6,18.1
		l-0.6,1.9l1.7,0.6c14.5,5.4,25.2,16.3,28.4,19.8c1.8,23.3,21.3,41.7,45,41.7c9,0,17.5-2.7,24.5-7.3c0.7-0.4,1.4-0.9,2.1-1.4
		c10-7.3,16.9-18.6,18.3-31.6c6.6-4.8,26.9-14.1,27.1-14.2l2.1-0.8l-1.4-1.9c-3.8-3.8-10.4-16.9-12.1-20
		C175.5,102.3,184.6,92.8,185.1,92.4z M129,39.3c2.9,1.3,16.4,7.6,28.1,11.3c3.6,1.2,7.1,2.2,9.9,2.6c-3,5.4-21.8,39.7-27.5,48.4
		c-1-0.8-2.1-1.6-3.2-2.3c7.2-9.5,23.6-42.5,23.7-42.9l0.1-0.2l-0.2-0.1c-5.4-1.4-27.8-10.6-28-10.7l-0.2-0.1l0,0.2
		c-0.8,9.9-11.7,39.2-14.6,46.7c-1-0.1-2-0.2-3.1-0.3C116.7,84.2,126,56.5,129,39.3z M99.5,97.7l9,5.7l1.4,17.8l-13.6,13l-0.6-0.2
		l-15.4-5.3l-5.3-10.5C80.1,108.6,88.9,101.1,99.5,97.7z M70.2,119.5C61.6,107.1,46.6,90.7,45,88.8c5-2.4,16.6-9.4,18.3-10.4
		c6.3,10.7,12,24.1,14.2,29.5C74.5,111.4,72,115.3,70.2,119.5z M80.1,105.1c-4.9-15.7-17-35.7-18.1-37.6c7.5-5.5,25-9.7,25-9.8
		c6.5,11.4,10.7,30.6,11.9,36.2C91.7,96.1,85.3,99.9,80.1,105.1z M102.6,93c-0.3-2-0.8-4.2-1.4-6.5c0.4-4.5,1.6-17,1.7-20
		c1.6,0.1,14.6,1.1,17.8,1.8c-3.2,10.5-6.3,19.9-7.7,23.8c-0.4,0-0.8,0-1.3,0C108.6,92.1,105.5,92.4,102.6,93z M109.6,103.6l9.3-7.2
		c10.6,1.7,19.9,7.4,26.3,15.6c1,1.3,1.9,2.7,2.7,4.1l-5.2,11l-16.9,6.1L111,120.8L109.6,103.6z M117.4,92.4
		c2.9-7.6,13.6-36.3,14.6-46.5c2.3,0.9,22.2,9.1,27.7,10.5c-1.3,2.7-16.7,33.6-23.6,42.7C130.5,95.6,124.2,93.3,117.4,92.4z
		 M140.2,102.2c0.8-1.2,1.8-2.9,3-4.9c3.4-3.1,17.2-15.5,20.5-18.9l14.3,13.2c-1.7,1.5-18.6,17-26.9,23.4
		C148.2,110.1,144.5,105.7,140.2,102.2z M99.2,76.2c0.1-1.9,0.5-9.2,0.5-12.9c3,0.2,17.1,1.3,22.1,1.6c-0.3,1-0.6,2-0.9,3
		c-3.3-0.7-17.5-1.7-18.1-1.7l-0.2,0l0,0.2c-0.1,2.5-1.2,14.1-1.6,19.2c-0.6-2.2-1.2-4.4-2-6.6C99,78.6,99.1,77.5,99.2,76.2z
		 M56,66.6c1-0.6,3.6-2.2,7.3-4c0.1-0.1,0.2-0.1,0.3-0.2c0.2-0.1,0.5-0.2,0.7-0.3c0.1,0,0.1-0.1,0.2-0.1c6.1-3,14.7-6.5,23.7-8
		c1.1,2.6,5.2,11.9,7.5,18c2.6,7.2,5,15.1,6,21.3c-0.8,0.2-1.6,0.4-2.5,0.6c-1.2-5.7-5.4-24.9-12.1-36.4c-0.2,0-17.9,4.3-25.4,9.8
		l-0.1,0.1l0.1,0.1c0.1,0.2,13.1,21.4,18.2,37.8c-0.6,0.6-1.2,1.2-1.7,1.8C74.8,99,64.8,76.1,56,66.6z M66.6,136.8
		c-3.8-4-12.4-11.9-26.5-18c0.7-2.1,4.2-12.2,11-17.5c0.6,0.7,1.2,1.4,1.8,2.1c-0.8,0.8-7.2,7.6-9.4,13.4l-0.1,0.2l0.2,0.1
		c0.1,0.1,13.7,5.4,23.2,15.3C66.7,133.8,66.6,135.3,66.6,136.8z M66.9,131.9c-9-9.3-21.5-14.5-23-15.1c2.1-5.6,8.3-12.2,9.2-13.1
		c6.5,7.9,13.2,16.4,15.7,19.6C67.9,126,67.3,128.9,66.9,131.9z M69.2,122.2c-3.6-4.6-13.4-17-21-25.9c-1.8-2.2-4.2-4.9-6.2-6.9
		c-0.4-0.4-0.7-0.7-1-1C44.1,86.7,59,78.2,61.8,76c0.4,0.7,0.9,1.4,1.3,2.1c-1.7,1-13.5,8.2-18.4,10.5l-0.2,0.1l0.1,0.2
		c0.2,0.2,16.4,18,25.5,31.1C69.7,120.7,69.5,121.4,69.2,122.2z M82.7,167.5c-3.5-3.4-6.4-7.3-8.6-11.7c-2.4-5-3.8-10.6-4-16.5
		l9.5-9.5l15.7,5.4l8.1,14.8l-8.6,16.1L82.7,167.5z M131.1,174.4c-5.8,3-12.4,4.8-19.4,4.8c-3.7,0-7.2-0.5-10.6-1.4l-5.4-11
		l8.7-16.4l16.1-1l11.9,14.1L131.1,174.4z M146,161.4l-12.7,1.3l-11.9-14.1l5-14.6l16.7-6l10.5,5.6c0.1,1.2,0.2,2.4,0.2,3.6
		C153.7,146.2,150.9,154.6,146,161.4z M152.9,118.7c3.4-2.1,8.7-6.5,14-11.1c1.1,2.3,5.7,12.6,8.9,17.3c-1.8,0.8-14.2,6.2-19.1,9.6
		C156.5,128.9,155.1,123.6,152.9,118.7z M182.1,126.1c-1.4,0.7-3.9,1.9-7,3.4c-6,2.7-13.9,6.6-18.3,9.6c0-0.6,0-1.2,0-1.9
		c0-0.8,0-1.6-0.1-2.3c5-3.5,19.2-9.7,19.3-9.8l0.2-0.1l-0.1-0.2c-3.2-4.7-8.1-15.4-9.1-17.5c0.7-0.6,1.5-1.3,2.2-1.9l0.1,0.1
		C169.8,106.2,177.5,120.7,182.1,126.1z M152.5,117.8c-0.4-0.9-0.9-1.7-1.3-2.6c8.8-6.7,26.9-23.4,27.1-23.5l0.1-0.1l-14.8-13.7
		l-0.1,0.1c-2.8,3-15.3,14.3-19.7,18.3c1.4-2.4,3-5.2,4.7-8.1l0,0c0,0,0.8-0.8,2.1-2.1l6.3-6.4c2.6-2.6,5.1-5.2,6.5-6.7
		c2.2,2,14.5,13.4,19.6,18.2c-1,1-3,3.1-5.2,5.2C170.6,103.2,158.4,114.1,152.5,117.8z"/>
</g>
</svg>
