<?xml version="1.0" encoding="utf-8"?>
<!-- Generator: Adobe Illustrator 22.1.0, SVG Export Plug-In . SVG Version: 6.00 Build 0)  -->
<svg version="1.1" id="Layer_1" xmlns="http://www.w3.org/2000/svg" xmlns:xlink="http://www.w3.org/1999/xlink" x="0px" y="0px"
	 viewBox="0 0 143 223" style="enable-background:new 0 0 143 223;" xml:space="preserve">
<style type="text/css">
	.st0{fill:#ECECEC;}
	.st1{fill:#F4F4F4;}
	.st2{fill:none;stroke:#463633;stroke-width:2.9215;stroke-miterlimit:10;}
	.st3{fill:#72605B;}
	.st4{fill:#5F4F4C;}
	.st5{fill:#AEAEAE;}
	.st6{fill:#FFBFA0;}
	.st7{fill:#E79F89;}
	.st8{fill:#3F6C71;}
	.st9{fill:#305659;}
	.st10{fill:#00303A;}
	.st11{fill:#003B42;}
	.st12{fill:#723E2E;}
	.st13{fill:#1C1C24;}
	.st14{fill:#FFFFFF;}
	.st15{fill:#009BC1;}
	.st16{fill:#574745;}
	.st17{fill:none;stroke:#574745;stroke-width:1.0446;stroke-linecap:round;stroke-miterlimit:10;}
	.st18{fill:#DDCAC7;}
	.st19{fill:#F1E1DD;}
	.st20{fill:#CE6363;}
	.st21{fill:#007F94;}
	.st22{clip-path:url(#SVGID_2_);}
	.st23{fill:#954444;}
</style>
<circle id="Ellipse_1_copy_14" class="st0" cx="71.5" cy="111.9" r="71.5"/>
<ellipse id="Ellipse_1_copy_13" class="st1" cx="106.1" cy="203.3" rx="19.6" ry="19.7"/>
<ellipse id="Ellipse_1_copy_12" class="st1" cx="68.8" cy="108.3" rx="67.2" ry="67.4"/>
<g>
	<path class="st2" d="M98.5,124.6c0,0-0.9-2.8,3.7-4.2c4.5-1.4,7.1,0.6,7.9,4"/>
	<path class="st3" d="M85.6,126.1l35-4.9l5.7,25c0,0-12.7,6.5-37.8,5.3L85.6,126.1z"/>
	<path class="st4" d="M93.5,138.9c0,0,19.7-1.5,30.1-4.7l-0.3-1.3c0,0-9.1,3.4-30,4.9L93.5,138.9z"/>
	<polygon class="st5" points="106,135.3 106.5,138 115.3,136.3 114.9,134.1 	"/>
	<path class="st6" d="M107.3,121.3C107.3,121.2,107.3,121.2,107.3,121.3c0.8-3.7-1.3-4.7-1.3-4.7L103.3,93l-6.6,4.9l0.9-0.3
		l2.7,18.5c0,0-3.3,1.8-1.5,5.3l1.8-1.1c0,0,0.7,0.7,0.2,1.5c0,0-0.6-0.2-1,0.7c0,0,0.8,1.3,2.2,0.3c0,0,0,0,0,0c0,0,1.1,1,2.1,0
		c0,0,1.8,0.8,2.9-1.1c0,0,0,0,0,0c0,0,0,0,0,0c0,0,0,0,0,0C107.2,121.5,107.2,121.4,107.3,121.3
		C107.3,121.3,107.3,121.3,107.3,121.3z"/>
	<path class="st4" d="M90.7,125.4l-5.2,0.7l2.9,25.3c2.7,0.1,5.2,0.2,7.6,0.1L90.7,125.4z"/>
	<path class="st6" d="M38.2,80L31,59.3c0,0-2.8,0.4-4.7-0.3c0,0-2-1.4-0.8-2.1c0,0-1.7-0.5-0.9-2c0,0-1.7-1.5-0.4-2.5
		c0,0-1.4-1.3,0.9-2.1c2.3-0.8,5.7-0.3,5.7-0.3s-1.6-3.7-0.4-5.5c1-1.4,2.8,5.5,2.8,5.5L45,81.5L38.2,80z"/>
	<path class="st7" d="M98,99.6c1.9-1,3.8-2,5.8-3l-0.4-3.7l-6.6,4.9l0.9-0.3L98,99.6z"/>
	<path class="st7" d="M40.4,69.5c-1.5,1.4-3,2.7-4.5,4.1l2.3,6.5l6.7,1.5L40.4,69.5z"/>
	<polygon class="st8" points="61.1,180.3 62.7,190.8 66.8,190.9 65.7,179.5 	"/>
	<polygon class="st8" points="86,184.6 87.8,195 91.9,195 90.5,183.7 	"/>
	<path class="st9" d="M66.4,186.2l-0.7-6.7l-4.6,0.8l0.9,5.8C63.3,186.2,64.9,186.3,66.4,186.2z"/>
	<path class="st9" d="M91.1,188.3l-0.6-4.6l-4.5,0.9l0.8,4.4C88.2,188.7,89.7,188.6,91.1,188.3z"/>
	<path class="st10" d="M92.9,185.9L84,100.4l-0.5,0c-3.5-7.3-17.2-0.7-22.5,2.3l-2-0.3c-0.3,1.6-6.6,40.1,1,82c0,0,4.3,1.4,8-1.2
		c-3-18.3-2.8-49-0.7-63.9c3.1,0.5,4.4,0.1,7.8-0.2c0,0,7.4,60,8.9,67.6C88.8,188.7,92.9,185.9,92.9,185.9z"/>
	<polygon class="st11" points="69.4,108.7 69.2,117.4 71.7,117.5 71.7,119.5 72.2,119.5 72.7,109.1 	"/>
	<polygon class="st7" points="71.2,45.5 71,60.8 81.2,57 81.6,41.2 	"/>
	<path class="st6" d="M90.3,25.2c-2.1-0.6-3.5,0.9-4.3,2.3c-0.3-5.2-0.6-9.8-0.6-9.8s-1.9-5.5-11.2-4.7c-8.4,0.8-8.4,0.8-8.4,0.8
		S62,39.2,63.8,42.1c1.5,2.4,5.6,5.7,10.1,5.3c4.5-0.4,12.6-2.8,12.6-7.3c0-1-0.1-2.7-0.2-4.7C92.3,36.3,94.1,26.3,90.3,25.2z"/>
	<path class="st7" d="M89.8,26.9c-2.2-0.6-3.2,2.6-3.3,3.2c1.5,0.7,2,2.6,1.1,3.7C91.1,34.1,92.2,27.6,89.8,26.9z"/>
	<path class="st12" d="M86.5,27.2l-0.6,3h-1.7V19.8c0,0-3.8-2.1-3.5-5.8c0,0-3.8,1.7-7.4,2.3c-2.8,0.4-13.7,1.9-13.5-8.2
		c0,0,1.8,3.4,4.2,3.7c0,0-5.8-3.1-1.7-8.8c0,0-0.5,3,1.7,2.7c2.2-0.3,9.2-6.8,15.5-4.6c6.3,2.2,6.4,6,6.4,6s6.4-0.1,6.8,3.3
		c0.4,3.4-3.9,14.9-3.9,14.9S86.5,25.6,86.5,27.2z"/>
	<g>
		<path class="st12" d="M74.6,21.6c0,0,4.9-1,6.3,1.1c0,0,1.4-2.1-0.6-3c-2.1-0.9-4.3-0.6-5.4-0.2C73.9,19.8,73.4,21.4,74.6,21.6z"
			/>
		<path class="st12" d="M70.2,21.6c0,0-4.3-1.3-5.6,0.8c0,0-0.8-2.3,1.1-2.8c2-0.5,4-0.3,4.9,0C71.4,20,71.2,21.6,70.2,21.6z"/>
		<ellipse class="st13" cx="78.9" cy="25.4" rx="1.2" ry="2"/>
		<ellipse class="st13" cx="69.2" cy="25.4" rx="1.2" ry="2"/>
	</g>
	<polygon class="st7" points="72.3,23.4 68.5,33.7 73.7,34.7 	"/>
	<path class="st14" d="M69.3,37.2l10.7-1.4c0,0-1.1,4-5.4,4.7C70.5,41.1,69.3,37.2,69.3,37.2z"/>
	<path class="st15" d="M56.5,58.8c0,0,1.1,31,2.4,45c0,0,5.2,2.3,15.8,2.3c7.5,0,9.7-1.6,9.7-1.6l14.1-48.4c0,0-6.9-1.7-18.3-2.1
		l-5.5,4.8c0,0-1.3-3.9-4.1-4.8c-4.3,0.1-9.1,0.5-14.1,1.1V58.8z"/>
	<g>
		<polygon class="st15" points="97.3,97.2 90.5,57.6 98.5,56.1 104.1,94.1 		"/>
	</g>
	<g>
		<path class="st15" d="M56.5,55.1L44.3,75.4l-1.5-2.7c-1.9,2-3.8,4.1-5.8,6.1c2.1,5.8,4.3,10.6,5.8,10.1
			c3.6-1.2,15.3-19.1,15.3-19.1L56.5,55.1z"/>
	</g>
	<g>
		<path class="st3" d="M62.4,105.6c-2.2-0.5-3.4-1-3.5-1c-0.6-0.2-0.9,0.3-0.9,0.9c-0.1,0.8-0.2,1.2,0.4,1.3c0.1,0,1.4,0.6,3.5,1.1
			C62.1,107.2,62.3,106.4,62.4,105.6z"/>
		<path class="st3" d="M78,106.5c-2.4,0.2-5.1,0.2-7.9,0.1c-2.2-0.1-4.2-0.3-5.8-0.6c0,0.8-0.1,1.7-0.3,2.5c1.7,0.3,3.7,0.6,6,0.7
			c0.9,0,1.8,0.1,2.7,0.1c2,0,3.8-0.1,5.6-0.2C78.1,108.1,78,107.3,78,106.5z"/>
		<path class="st3" d="M85.1,106.4c-0.1-0.6-0.2-1.2-0.8-1c-1.4,0.4-3,0.7-4.7,0.9c0,0.8,0.1,1.6,0.3,2.4c1.8-0.2,3.4-0.6,4.9-1.1
			C85.2,107.5,85.2,107,85.1,106.4z"/>
	</g>
	<path class="st5" d="M68.4,106.1v3l5.6,0.4v-3.2L68.4,106.1z M73.1,108.9l-3.7-0.2v-2l3.7,0.1V108.9z"/>
	<g>
		<path class="st3" d="M60.9,188.6c0,0-2.4,3-6,4.1c-3.6,1.1-8.4,3.2-8.2,5.3c0,0,6.9,1.8,15.6-1.1v0.9l5.7-0.2v-7.4l-4.7,0.3
			l0.4-0.7L60.9,188.6z"/>
		<path class="st16" d="M57.4,197.4c-6.5,1.7-10.2,0.2-10.6,0c0,0.2-0.1,0.4,0,0.5c0,0,6.9,1.8,15.6-1.1v0.9l5.7-0.2v-1.5
			C66,196.2,62.5,196.1,57.4,197.4z"/>
		<path class="st17" d="M59.1,190.4c0,0,1.4,0.5,2.6,2.3"/>
		<path class="st17" d="M57.7,191c0,0,1.4,0.5,2.6,2.3"/>
		<path class="st17" d="M56.4,191.5c0,0,1.4,0.5,2.6,2.3"/>
	</g>
	<g>
		<path class="st3" d="M93.2,190.1c0,0,2.4,3,6,4.1c3.6,1.1,8.4,3.2,8.2,5.3c0,0-6.9,1.8-15.6-1.1v0.9L86,199v-7.4l4.7,0.3l-0.4-0.7
			L93.2,190.1z"/>
		<path class="st16" d="M96.7,198.8c6.5,1.7,10.2,0.2,10.6,0c0,0.2,0.1,0.4,0,0.5c0,0-6.9,1.8-15.6-1.1v0.9L86,199v-1.5
			C88,197.6,91.5,197.5,96.7,198.8z"/>
		<path class="st17" d="M95,191.9c0,0-1.4,0.5-2.6,2.3"/>
		<path class="st17" d="M96.3,192.4c0,0-1.4,0.5-2.6,2.3"/>
		<path class="st17" d="M97.6,193c0,0-1.4,0.5-2.6,2.3"/>
	</g>
	<polygon class="st18" points="74.7,58.8 76.3,53.9 79.3,55.5 	"/>
	<polygon class="st18" points="74.5,54.3 74.7,58.8 72.3,55.5 	"/>
	<polygon class="st19" points="67.6,53.7 71.2,59 74.5,54.3 69.7,50.7 	"/>
	<polygon class="st19" points="83.7,53.7 78.7,59 76.3,53.9 81.9,50.5 	"/>
	<path class="st20" d="M77.1,55.7c0,0-1.6,0.3-3.6,0l-1,1.4l1,2.8l-6.8,34.2l3.6,4.6l4.8-3.8L76,60.2l1.7-3.4L77.1,55.7z"/>
	<path class="st21" d="M78.6,70l12.6,0.9c0,0-0.6,11.3-7.6,10.6C75.1,80.5,78.6,70,78.6,70z"/>
	<path class="st20" d="M88.1,70.7c0,0,0.4-5.3,1.2-5.3c0.9-0.1,0.3,9.3-0.6,9.5c0,0-0.2-1.4,0.2-4.1L88.1,70.7z"/>
	<g>
		<defs>
			<path id="SVGID_1_" d="M77.1,55.7c0,0-1.6,0.3-3.6,0l-1,1.4l1,2.8l-6.8,34.2l3.6,4.6l4.8-3.8L76,60.2l1.7-3.4L77.1,55.7z"/>
		</defs>
		<clipPath id="SVGID_2_">
			<use xlink:href="#SVGID_1_"  style="overflow:visible;"/>
		</clipPath>
		<g class="st22">
			<g>
				<polygon class="st23" points="65.1,62.8 64.3,61 81.7,54.9 82.5,56.8 				"/>
			</g>
			<g>
				<polygon class="st23" points="65.1,67.7 64.3,65.9 81.7,59.8 82.5,61.7 				"/>
			</g>
			<g>
				<polygon class="st23" points="65.1,72.6 64.3,70.8 81.7,64.8 82.5,66.6 				"/>
			</g>
			<g>
				<polygon class="st23" points="65.1,77.6 64.3,75.7 81.7,69.7 82.5,71.5 				"/>
			</g>
			<g>
				<polygon class="st23" points="65.1,82.5 64.3,80.6 81.7,74.6 82.5,76.5 				"/>
			</g>
			<g>
				<polygon class="st23" points="65.1,87.4 64.3,85.5 81.7,79.5 82.5,81.4 				"/>
			</g>
			<g>
				<polygon class="st23" points="65.1,92.3 64.3,90.4 81.7,84.4 82.5,86.3 				"/>
			</g>
			<g>
				<polygon class="st23" points="65.1,97.2 64.3,95.3 81.7,89.3 82.5,91.2 				"/>
			</g>
		</g>
	</g>
	<polygon class="st19" points="95,92.5 104.6,89.8 105.4,94.8 96.4,98 	"/>
	<path class="st19" d="M41.9,70.9l2.5,3.9c0,0-3.6,7.8-6.5,9.6L35,77.6L41.9,70.9z"/>
</g>
</svg>
